…
scraped_data <- scraped_data %>%
  mutate(playerID = str_replace(playerID, "^X-", ""))

scraped_data$playerID[2] <- "Todd Helton"
scraped_data$playerID[6] <- "Carlos Beltran"
scraped_data$playerID[15] <- "Francisco Rodriguez"



scraped_data
```

    ## # A tibble: 28 × 9
    ##    playerID    yearID votedBy ballots needed votes inducted category needed_note
    ##    <chr>        <dbl> <chr>     <dbl>  <dbl> <chr> <chr>    <chr>    <lgl>      
    ##  1 Scott Rolen   2023 BBWAA       389    292 297   Y        Player   NA         
    ##  2 Todd Helton   2023 BBWAA       389    292 281   N        Player   NA         
    ##  3 Billy Wagn…   2023 BBWAA       389    292 265   N        Player   NA         
    ##  4 Andruw Jon…   2023 BBWAA       389    292 226   N        Player   NA         
    ##  5 Gary Sheff…   2023 BBWAA       389    292 214   N        Player   NA         
    ##  6 Carlos Bel…   2023 BBWAA       389    292 181   N        Player   NA         
    ##  7 Jeff Kent     2023 BBWAA       389    292 181   N        Player   NA         
    ##  8 Alex Rodri…   2023 BBWAA       389    292 139   N        Player   NA         
    ##  9 Manny Rami…   2023 BBWAA       389    292 129   N        Player   NA         
    ## 10 Omar Vizqu…   2023 BBWAA       389    292 76    Y        Player   NA         
    ## # ℹ 18 more rows
…
matched_data <- left_join(scraped_data, people_data, by = c("playerID" = "full_name")) %>%
  select(playerID.y)  

colnames(matched_data) <- "playerID"
matched_data=matched_data[-15,]
scraped_data$playerID=matched_data$playerID
scraped_data$playerID[21]='dickera01'
scraped_data$playerID[23]='hardyjj01'

scraped_data
```

    ## # A tibble: 28 × 9
    ##    playerID  yearID votedBy ballots needed votes inducted category needed_note
    ##    <chr>      <dbl> <chr>     <dbl>  <dbl> <chr> <chr>    <chr>    <lgl>      
    ##  1 rolensc01   2023 BBWAA       389    292 297   Y        Player   NA         
    ##  2 heltoto01   2023 BBWAA       389    292 281   N        Player   NA         
    ##  3 wagnebi02   2023 BBWAA       389    292 265   N        Player   NA         
    ##  4 jonesan01   2023 BBWAA       389    292 226   N        Player   NA         
    ##  5 sheffga01   2023 BBWAA       389    292 214   N        Player   NA         
    ##  6 beltrca01   2023 BBWAA       389    292 181   N        Player   NA         
    ##  7 kentje01    2023 BBWAA       389    292 181   N        Player   NA         
    ##  8 rodrial01   2023 BBWAA       389    292 139   N        Player   NA         
    ##  9 ramirma02   2023 BBWAA       389    292 129   N        Player   NA         
    ## 10 vizquom01   2023 BBWAA       389    292 76    Y        Player   NA         
    ## # ℹ 18 more rows
…
